%YAML 1.1
%TAG !u! tag:unity3d.com,2011:
--- !u!21 &2100000
Material:
  serializedVersion: 6
  m_ObjectHideFlags: 0
  m_CorrespondingSourceObject: {fileID: 0}
  m_PrefabInstance: {fileID: 0}
  m_PrefabAsset: {fileID: 0}
  m_Name: AbstractTrackRoad 1
  m_Shader: {fileID: 4800000, guid: c2d7beccfe63af04a925442a61fbda52, type: 3}
  m_ShaderKeywords: FOG USE_LIGHTING
  m_LightmapFlags: 4
  m_EnableInstancingVariants: 0
  m_DoubleSidedGI: 0
  m_CustomRenderQueue: -1
  stringTagMap: {}
  disabledShaderPasses: []
  m_SavedProperties:
    serializedVersion: 3
    m_TexEnvs:
    - _MainTex:
        m_Texture: {fileID: 2800000, guid: da74dccd070b7a240b4782103daf9b1f, type: 3}
        m_Scale: {x: 1, y: 1}
        m_Offset: {x: 0, y: 0}
    m_Floats:
    - _AlphaClip: 0
    - _AmbientLightToggle: 0
    - _BackgroundFillToggle: 0
    - _Blend: 0
    - _BumpScale: 1
    - _Cull: 2
    - _CullMode: 2
    - _CurvedWorld: 0
    - _CutOff: 1
    - _Cutoff: 0.5
    - _CutoutTransparency: 0
    - _DistanceTransparency: 0
    - _DistanceVisibility: 3
    - _DstBlend: 0
    - _FakeLighting: 1
    - _FogToggle: 1
    - _GlossMapScale: 1
    - _Glossiness: 0.5
    - _GlossyReflections: 1
    - _Grayscale: 0
    - _GrayscaleToggle: 0
    - _LightingToggle: 0
    - _Metallic: 0
    - _OcclusionStrength: 1
    - _ReceiveShadows: 1
    - _RimLighting: 0
    - _RimPower: 3
    - _SmoothnessTextureChannel: 0
    - _SpecularHighlights: 1
    - _SrcBlend: 1
    - _Surface: 0
    - _Transparency: 0
    - _UseVertexAlpha: 0
    - _Visibility: 1
    - _WorkflowMode: 1
    - _ZWrite: 1
    m_Colors:
    - _Color: {r: 1, g: 1, b: 1, a: 1}
    - _EmissionColor: {r: 0, g: 0, b: 0, a: 1}
    - _RimColor: {r: 1, g: 1, b: 1, a: 1}
    - _SpecColor: {r: 0.2, g: 0.2, b: 0.2, a: 1}
  m_BuildTextureStacks: []
